<?xml version="1.0" encoding="UTF-8" standalone="no"?>
<!-- Created with Inkscape (http://www.inkscape.org/) -->

<svg
   xmlns:osb="http://www.openswatchbook.org/uri/2009/osb"
   xmlns:dc="http://purl.org/dc/elements/1.1/"
   xmlns:cc="http://creativecommons.org/ns#"
   xmlns:rdf="http://www.w3.org/1999/02/22-rdf-syntax-ns#"
   xmlns:svg="http://www.w3.org/2000/svg"
   xmlns="http://www.w3.org/2000/svg"
   xmlns:xlink="http://www.w3.org/1999/xlink"
   xmlns:sodipodi="http://sodipodi.sourceforge.net/DTD/sodipodi-0.dtd"
   xmlns:inkscape="http://www.inkscape.org/namespaces/inkscape"
   width="338.48584mm"
   height="78.68158mm"
   viewBox="0 0 1199.3593 278.793"
   id="svg4203"
   version="1.1"
   inkscape:version="0.91 r13725"
   sodipodi:docname="logo.svg">
  <defs
     id="defs4205">
    <linearGradient
       inkscape:collect="always"
       id="linearGradient4382">
      <stop
         style="stop-color:#ffff55;stop-opacity:1"
         offset="0"
         id="stop4384" />
      <stop
         style="stop-color:#e9e900;stop-opacity:1"
         offset="1"
         id="stop4386" />
    </linearGradient>
    <linearGradient
       osb:paint="solid"
       id="linearGradient4348">
      <stop
         id="stop4350"
         offset="0"
         style="stop-color:#535300;stop-opacity:1;" />
    </linearGradient>
    <inkscape:path-effect
       is_visible="true"
       id="path-effect3377"
       effect="spiro" />
    <inkscape:path-effect
       is_visible="true"
       id="path-effect3377-5"
       effect="spiro" />
    <linearGradient
       gradientTransform="matrix(1.1835187,0,0,1.1835187,-32.513149,-140.84414)"
       gradientUnits="userSpaceOnUse"
       y2="816.67139"
       x2="229.04427"
       y1="746.97089"
       x1="150.54179"
       id="linearGradient4368-1"
       xlink:href="#linearGradient4382"
       inkscape:collect="always" />
  </defs>
  <sodipodi:namedview
     id="base"
     pagecolor="#ffffff"
     bordercolor="#666666"
     borderopacity="1.0"
     inkscape:pageopacity="0.0"
     inkscape:pageshadow="2"
     inkscape:zoom="0.35"
     inkscape:cx="422.84397"
     inkscape:cy="141.1467"
     inkscape:document-units="px"
     inkscape:current-layer="g4785"
     showgrid="false"
     fit-margin-top="0"
     fit-margin-left="0"
     fit-margin-right="0"
     fit-margin-bottom="0"
     inkscape:window-width="1366"
     inkscape:window-height="714"
     inkscape:window-x="0"
     inkscape:window-y="27"
     inkscape:window-maximized="1" />
  <metadata
     id="metadata4208">
    <rdf:RDF>
      <cc:Work
         rdf:about="">
        <dc:format>image/svg+xml</dc:format>
        <dc:type
           rdf:resource="http://purl.org/dc/dcmitype/StillImage" />
        <dc:title></dc:title>
      </cc:Work>
    </rdf:RDF>
  </metadata>
  <g
     inkscape:label="Layer 1"
     inkscape:groupmode="layer"
     id="layer1"
     transform="translate(266.04029,-402.84074)">
    <g
       id="g4785"
       transform="matrix(0.68377833,0,0,0.68377833,-272.4187,402.33803)">
      <g
         transform="translate(-4.6653543,7.1866941)"
         inkscape:label="Layer 2"
         id="layer2" />
      <g
         id="g4188"
         transform="matrix(0.99723123,0,0,0.99723123,1.1488066,0.73520842)">
        <g
           transform="translate(-14.307755,3.3034882)"
           inkscape:label="Layer 2"
           id="layer2-5" />
        <g
           style="display:inline"
           transform="translate(-14.307755,-694.72801)"
           id="layer1-62"
           inkscape:label="Layer 1">
          <g
             inkscape:label="Layer 3"
             id="layer3"
             inkscape:groupmode="layer" />
          <g
             transform="translate(5.2948132,0)"
             id="g4192">
            <rect
               style="color:#000000;clip-rule:nonzero;display:inline;overflow:visible;visibility:visible;opacity:1;isolation:auto;mix-blend-mode:normal;color-interpolation:sRGB;color-interpolation-filters:linearRGB;solid-color:#000000;solid-opacity:1;fill:#4f5d60;fill-opacity:1;fill-rule:nonzero;stroke:none;stroke-width:0.1;stroke-linecap:butt;stroke-linejoin:round;stroke-miterlimit:4;stroke-dasharray:none;stroke-dashoffset:0;stroke-opacity:1;color-rendering:auto;image-rendering:auto;shape-rendering:auto;text-rendering:auto;enable-background:accumulate"
               id="rect4156"
               width="235"
               height="219"
               x="71.665367"
               y="835.07635"
               ry="29.000002" />
            <rect
               style="color:#000000;clip-rule:nonzero;display:inline;overflow:visible;visibility:visible;opacity:1;isolation:auto;mix-blend-mode:normal;color-interpolation:sRGB;color-interpolation-filters:linearRGB;solid-color:#000000;solid-opacity:1;fill:#5e6c70;fill-opacity:1;fill-rule:nonzero;stroke:none;stroke-width:0.09475844;stroke-linecap:butt;stroke-linejoin:round;stroke-miterlimit:4;stroke-dasharray:none;stroke-dashoffset:0;stroke-opacity:1;color-rendering:auto;image-rendering:auto;shape-rendering:auto;text-rendering:auto;enable-background:accumulate"
               id="rect4156-3"
               width="211.00525"
               height="219.00526"
               x="71.662743"
               y="835.07373"
               ry="29.050253" />
            <rect
               style="color:#000000;clip-rule:nonzero;display:inline;overflow:visible;visibility:visible;opacity:1;isolation:auto;mix-blend-mode:normal;color-interpolation:sRGB;color-interpolation-filters:linearRGB;solid-color:#000000;solid-opacity:1;fill:#ce1d4c;fill-opacity:1;fill-rule:nonzero;stroke:none;stroke-width:0.1053429;stroke-linecap:butt;stroke-linejoin:round;stroke-miterlimit:4;stroke-dasharray:none;stroke-dashoffset:0;stroke-opacity:1;color-rendering:auto;image-rendering:auto;shape-rendering:auto;text-rendering:auto;enable-background:accumulate"
               id="rect4173"
               width="239.35031"
               height="60.098736"
               x="69.014725"
               y="918.72876"
               ry="0" />
            <rect
               style="color:#000000;clip-rule:nonzero;display:inline;overflow:visible;visibility:visible;opacity:1;isolation:auto;mix-blend-mode:normal;color-interpolation:sRGB;color-interpolation-filters:linearRGB;solid-color:#000000;solid-opacity:1;fill:#e84661;fill-opacity:1;fill-rule:nonzero;stroke:none;stroke-width:0.10000001;stroke-linecap:butt;stroke-linejoin:round;stroke-miterlimit:4;stroke-dasharray:none;stroke-dashoffset:0;stroke-opacity:1;color-rendering:auto;image-rendering:auto;shape-rendering:auto;text-rendering:auto;enable-background:accumulate"
               id="rect4173-6"
               width="213.66101"
               height="60.104549"
               x="69.011818"
               y="918.72589"
               ry="0" />
          </g>
          <g
             transform="translate(8.202097,0)"
             id="g4341">
            <ellipse
               style="color:#000000;clip-rule:nonzero;display:inline;overflow:visible;visibility:visible;opacity:1;isolation:auto;mix-blend-mode:normal;color-interpolation:sRGB;color-interpolation-filters:linearRGB;solid-color:#000000;solid-opacity:1;fill:#4f5d60;fill-opacity:1;fill-rule:nonzero;stroke:none;stroke-width:0.1;stroke-linecap:butt;stroke-linejoin:round;stroke-miterlimit:4;stroke-dasharray:none;stroke-dashoffset:0;stroke-opacity:1;color-rendering:auto;image-rendering:auto;shape-rendering:auto;text-rendering:auto;enable-background:accumulate"
               id="path4190-5"
               cx="185.78114"
               cy="839.88367"
               rx="171.4734"
               ry="38.537323" />
            <path
               style="color:#000000;clip-rule:nonzero;display:inline;overflow:visible;visibility:visible;opacity:1;isolation:auto;mix-blend-mode:normal;color-interpolation:sRGB;color-interpolation-filters:linearRGB;solid-color:#000000;solid-opacity:1;fill:#717d7f;fill-opacity:1;fill-rule:nonzero;stroke:none;stroke-width:0.1;stroke-linecap:butt;stroke-linejoin:round;stroke-miterlimit:4;stroke-dasharray:none;stroke-dashoffset:0;stroke-opacity:1;color-rendering:auto;image-rendering:auto;shape-rendering:auto;text-rendering:auto;enable-background:accumulate"
               d="M 181.11523,110.50195 A 171.47338,38.537317 0 0 0 9.6425781,149.03906 171.47338,38.537317 0 0 0 109.94727,184.05664 a 171.47339,38.537321 0 0 0 47.16796,1.51953 171.47339,38.537321 0 0 0 171.47461,-38.53711 171.47339,38.537321 0 0 0 -100.27734,-35.01562 171.47338,38.537317 0 0 0 -47.19727,-1.52149 z"
               transform="translate(4.665339,690.8448)"
               id="path4190"
               inkscape:connector-curvature="0" />
          </g>
          <g
             transform="translate(8.2021076,0)"
             id="g4345">
            <path
               sodipodi:type="inkscape:offset"
               inkscape:radius="-5.2336602"
               inkscape:original="M 177.50391 685.61328 C 171.34036 685.52666 165.27856 689.22801 162.53906 694.75 L 145.125 729.8418 L 106.33984 735.39258 A 12.16267 12.16267 0 0 0 106.33594 735.39258 C 100.30095 736.25829 94.935391 740.76424 93.039062 746.55859 C 91.142735 752.35294 92.806652 759.15762 97.162109 763.42383 A 12.16267 12.16267 0 0 0 97.164062 763.42578 L 125.16016 790.83398 L 118.45117 829.43555 A 12.16267 12.16267 0 0 0 118.45117 829.4375 C 117.40841 835.44541 120.03539 841.9425 124.96094 845.53711 C 129.88649 849.13172 136.87368 849.65154 142.27734 846.82617 L 176.99805 828.67188 L 211.63672 846.97852 A 12.16267 12.16267 0 0 0 211.63867 846.97852 C 217.02978 849.82691 224.02004 849.33844 228.96094 845.76562 C 233.90184 842.19282 236.557 835.7074 235.54102 829.69531 A 12.16267 12.16267 0 0 0 235.53906 829.69336 L 229 791.0625 L 257.11523 763.77539 C 261.49154 759.52826 263.18808 752.72791 261.31641 746.92383 C 259.44476 741.11985 254.0954 736.59165 248.0625 735.70117 L 248.06055 735.70117 L 209.30078 729.98438 L 192.03906 694.8125 A 12.16267 12.16267 0 0 0 192.03711 694.80859 C 189.37846 689.39445 183.53692 685.69878 177.50586 685.61328 L 177.50391 685.61328 z "
               style="display:inline;opacity:1;fill:#717d7f;fill-opacity:1;stroke:none;stroke-width:0;stroke-linecap:round;stroke-miterlimit:4;stroke-dasharray:none;stroke-opacity:1"
               id="path4246-0"
               d="m 177.42969,690.8457 c -4.02068,-0.0565 -8.41584,2.62785 -10.20313,6.23047 l -17.41406,35.0918 a 5.2341836,5.2341836 0 0 1 -3.94531,2.85547 l -38.78516,5.55078 a 5.2341836,5.2341836 0 0 1 -0.0137,0.002 c -3.93639,0.56933 -7.817664,3.82957 -9.054688,7.60938 -1.238088,3.78306 -0.0335,8.71422 2.810548,11.5 a 5.2341836,5.2341836 0 0 1 0.0371,0.0351 l 27.96094,27.37305 a 5.2341836,5.2341836 0 0 1 1.49414,4.63672 l -6.70899,38.60156 c -0.68078,3.92234 1.22384,8.62985 4.43946,10.97656 3.21583,2.34688 8.27624,2.7238 11.80468,0.87891 l 34.72071,-18.1543 a 5.2341836,5.2341836 0 0 1 4.87109,0.0117 l 34.62109,18.29688 0.0176,0.01 a 5.2341836,5.2341836 0 0 1 0.002,0 c 3.52038,1.85999 8.58545,1.50594 11.81055,-0.82617 3.22229,-2.33006 5.14402,-7.0244 4.48633,-10.94727 a 5.2341836,5.2341836 0 0 1 -0.002,-0.0117 l -6.53907,-38.63086 a 5.2341836,5.2341836 0 0 1 1.51563,-4.62891 l 28.11523,-27.28711 c 2.85779,-2.77343 4.0869,-7.70185 2.86524,-11.49023 -1.2215,-3.78786 -5.09631,-7.06817 -9.03516,-7.65039 a 5.2341836,5.2341836 0 0 1 -0.004,0 l -38.75977,-5.7168 a 5.2341836,5.2341836 0 0 1 -3.93555,-2.87109 l -17.24804,-35.14649 a 5.2341836,5.2341836 0 0 1 -0.004,-0.008 5.2341836,5.2341836 0 0 1 -0.01,-0.0215 c -1.73705,-3.53737 -5.96663,-6.21365 -9.9082,-6.26953 a 5.2341836,5.2341836 0 0 1 -0.002,0 z"
               transform="translate(8.61347,3.8831674)" />
            <path
               sodipodi:type="inkscape:offset"
               inkscape:radius="0"
               inkscape:original="M 177.27344 702.05859 L 156.01367 744.89844 L 108.66992 751.67383 L 142.84375 785.13086 L 134.65625 832.25195 L 177.03906 810.08984 L 219.32227 832.4375 L 211.33984 785.28125 L 245.66211 751.97266 L 198.34766 744.99219 L 177.27344 702.05859 z "
               style="display:inline;opacity:1;fill:url(#linearGradient4368-1);fill-opacity:1;stroke:none;stroke-width:0;stroke-linecap:round;stroke-miterlimit:4;stroke-dasharray:none;stroke-opacity:1"
               id="path4196-9"
               d="m 177.27344,702.05859 -21.25977,42.83985 -47.34375,6.77539 34.17383,33.45703 -8.1875,47.12109 42.38281,-22.16211 42.28321,22.34766 -7.98243,-47.15625 34.32227,-33.30859 -47.31445,-6.98047 -21.07422,-42.9336 z"
               transform="translate(8.6151176,3.8831674)" />
          </g>
          <path
             sodipodi:nodetypes="cc"
             inkscape:connector-curvature="0"
             id="path3379-3"
             d="m 117.96196,837.34879 c 6.68269,20.25538 138.91572,20.94536 152.02797,0.50507"
             style="display:inline;opacity:1;fill:none;fill-rule:evenodd;stroke:#4f5d60;stroke-width:9.10000038;stroke-linecap:round;stroke-linejoin:miter;stroke-miterlimit:4;stroke-dasharray:none;stroke-opacity:1" />
        </g>
      </g>
    </g>
    <path
       style="color:#000000;font-style:normal;font-variant:normal;font-weight:normal;font-stretch:normal;font-size:226.98652649px;line-height:125%;font-family:Supermercado;-inkscape-font-specification:Supermercado;text-indent:0;text-align:start;text-decoration:none;text-decoration-line:none;text-decoration-style:solid;text-decoration-color:#000000;letter-spacing:0px;word-spacing:0px;text-transform:none;direction:ltr;block-progression:tb;writing-mode:lr-tb;baseline-shift:baseline;text-anchor:start;white-space:normal;clip-rule:nonzero;display:inline;overflow:visible;visibility:visible;opacity:1;isolation:auto;mix-blend-mode:normal;color-interpolation:sRGB;color-interpolation-filters:linearRGB;solid-color:#000000;solid-opacity:1;fill:#717d7f;fill-opacity:1;fill-rule:nonzero;stroke:#717d7f;stroke-width:0;stroke-linecap:butt;stroke-linejoin:round;stroke-miterlimit:4;stroke-dasharray:none;stroke-dashoffset:0;stroke-opacity:1;color-rendering:auto;image-rendering:auto;shape-rendering:auto;text-rendering:auto;enable-background:accumulate"
       d="m 475.38672,442.54688 c -14.56656,-0.46201 -24.89927,15.59065 -21.473,29.04684 0.64056,48.67293 -1.47011,97.48498 1.15659,146.06839 5.24315,16.6851 32.91378,18.51966 39.12891,1.61133 4.73542,-11.50207 0.47236,-23.9206 2.28125,-35.78906 -0.3673,-2.2526 -1.8156,-6.23128 2.06641,-4.86329 4.51868,-0.007 9.19441,3.41353 7.72265,8.41797 0.49406,12.99565 -3.82835,28.91471 6.78906,39.125 11.40316,10.5391 33.88987,3.64001 35.08008,-12.58984 1.03119,-10.90248 -0.0986,-21.77095 0.45117,-32.67578 -0.8114,-11.85986 -7.23355,-23.66027 -16.74804,-30.2461 6.55643,-11.69996 15.50014,-22.79648 18.29882,-36.14062 1.25549,-15.99864 -19.7445,-28.74227 -32.80859,-18.4336 -10.85583,8.0475 -12.51968,22.57168 -19.62294,33.32558 -2.51792,7.08724 -1.19478,-4.36724 -1.53526,-7.37831 -0.18201,-21.72601 1.30125,-43.64849 -1.23438,-65.24023 -2.89158,-8.04321 -10.77701,-14.5011 -19.55273,-14.23828 z m 327.04492,0.043 c -18.91881,-0.67906 -30.065,26.90882 -15.4375,39.20313 12.34378,13.95134 39.07242,3.7986 39.16211,-14.76367 1.28798,-13.04892 -10.85243,-24.92387 -23.72461,-24.43946 z m 79.10547,16.00391 c -13.21606,0.11352 -22.58737,14.25214 -20.52539,26.66992 -0.75114,2.93847 1.69482,7.34182 0.11914,9.35352 -11.38459,-1.41559 -24.80944,7.70646 -22.66016,20.1582 1.17922,10.8247 13.43249,18.15327 23.4336,15.60352 -1.46371,9.60345 0.31125,19.42955 -0.62604,29.15466 -0.003,15.28008 -1.39887,31.24837 3.57135,45.91565 7.8263,17.44111 28.10155,26.1452 46.45117,24.14258 11.24636,1.05185 23.74655,-8.2032 21.82031,-20.26172 -1.13986,-11.24291 -13.58077,-19.04214 -24.24414,-15.95703 -6.46001,-0.89576 -6.20314,-8.48945 -5.4082,-13.29297 0,-16.52995 0,-33.0599 0,-49.58985 10.24599,1.15575 24.19756,0.20702 28.45313,-11.00585 4.98952,-11.95329 -6.34603,-27.15278 -19.38672,-24.61329 -3.0515,-0.13692 -6.09239,0.40733 -9.14258,0.21875 0.9556,-11.73474 1.14686,-26.97604 -10.4668,-33.75195 -3.40196,-2.04897 -7.43968,-2.9235 -11.38867,-2.74414 z M 64.46875,460.2266 c -23.516837,-2.02998 -47.407005,16.32324 -49.126953,40.3125 -4.345172,23.30058 5.078184,48.69194 24.285156,62.81055 8.7546,7.99284 20.459295,13.78565 26.210938,24.5 -0.132031,6.00955 -7.596,5.81353 -11.84961,4.91016 -10.790614,-0.8623 -23.227054,6.59174 -22.728515,18.44335 0.09902,11.04635 11.212393,19.96652 22.001953,18.125 17.567221,1.42434 37.811919,-3.15273 47.761721,-19.03515 13.06883,-19.24841 7.04475,-47.64695 -11.658134,-61.03981 -3.090847,-3.04498 -8.466856,-6.49951 -10.69929,-8.63207 11.46169,2.40913 21.919494,-5.74476 26.638674,-15.65625 9.24015,-18.32014 6.33508,-44.56826 -11.841799,-56.39257 -8.428428,-5.81359 -18.793575,-8.6199 -28.994141,-8.34571 z m 612.3457,2.12305 c -16.84398,0.78989 -37.04657,-3.12895 -50.63086,9.81445 -13.3296,11.4094 -19.1574,32.21671 -11.6914,48.36914 6.96567,12.18991 26.40747,14.46581 34.92969,2.69727 4.93606,-5.90009 4.91168,-13.984 4.84179,-21.12891 2.87336,-6.15069 0.77693,7.10184 1.41663,9.41211 0.66523,34.44958 -1.1322,68.96019 0.92886,103.36902 1.97642,17.25023 28.83488,22.12149 37.76193,7.62122 7.30446,-12.1034 1.96545,-26.42747 3.78907,-39.53125 0.39766,-4.59073 -1.08294,-10.60371 0.57226,-14.41016 4.48554,-0.45484 10.90501,1.80287 9.03107,7.50518 0.85588,27.22087 8.50961,57.24061 31.19549,74.51044 8.31006,6.73418 21.89273,8.79877 29.52735,-0.0195 7.25228,-7.20595 6.52572,-19.56288 -0.5127,-26.65888 -7.49264,-9.46456 -15.86093,-19.02077 -16.62207,-31.69268 -1.46753,-13.9253 1.04076,-30.85394 -10.52929,-41.29492 0.42274,-2.64918 4.47318,-5.77459 5.44921,-9.17773 7.37848,-16.03503 2.56165,-33.93604 4.26954,-50.84571 0.52085,-10.7652 -2.96107,-24.42233 -14.84766,-27.41601 -11.90202,-3.87706 -26.52969,4.23603 -27.45898,17.24804 -1.46749,11.51635 0.3636,23.15273 -0.25,34.7168 -0.20096,5.48012 1.2628,12.86478 -3.06055,16.95508 -2.72169,0.83971 -8.46458,2.36538 -6.87737,-2.54632 -0.64576,-17.67677 1.70265,-35.63582 -1.32576,-53.12751 -2.66228,-8.40108 -11.01828,-14.66847 -19.90625,-14.36914 z M 188.5625,492.61133 c -6.95889,-0.11668 -13.6171,2.94195 -18.86719,7.35156 -9.99781,-12.50315 -33.90976,-7.67087 -36.49414,8.76758 -2.43906,12.04723 0.53616,24.36906 -0.6651,36.52534 0.29264,40.62011 -1.07897,81.32775 0.87799,121.88872 4.18779,15.92357 28.68771,19.96721 37.46875,5.83399 7.27292,-11.35595 2.75659,-25.37282 3.76563,-37.94922 -0.86494,-4.5279 0.5795,-6.76877 5.26171,-5.53712 16.14139,0.53712 33.93704,-5.47229 41.91797,-20.48437 9.68967,-17.77542 3.77935,-38.54179 5.56404,-57.71453 0.32784,-16.43887 0.86404,-35.78853 -12.44099,-47.78937 -6.99236,-6.78529 -16.56527,-11.0841 -26.38867,-10.89258 z m 614.79492,0.0332 c -14.11051,-0.49251 -24.73248,14.75571 -21.47951,28.01166 0.59288,32.31579 -1.44362,64.78589 1.14943,97.00201 5.24307,16.69364 32.97858,18.5409 39.16797,1.60742 4.70063,-12.15898 0.5636,-25.32935 1.91441,-37.92744 -0.43025,-25.01066 1.76027,-50.27999 -1.47105,-75.11748 -3.04957,-7.72376 -10.7658,-13.82853 -19.28125,-13.57617 z m -385.83789,0.041 c -7.16597,0.0248 -13.83023,3.78096 -19.49609,7.51367 -9.67118,-12.35435 -32.9845,-8.40196 -36.41406,7.5039 -3.02383,11.92504 0.24449,24.281 -0.94141,36.38282 0.27667,24.67046 -1.44081,49.54204 1.30273,74.07812 5.63831,16.26487 32.77354,17.79958 38.82813,1.04883 4.73451,-11.9293 0.40413,-24.89509 2.14844,-37.25586 0.22817,-17.18999 -1.20835,-34.9121 0.81054,-51.61719 6.18566,-0.69801 10.44264,6.61617 17.00586,5.57032 14.98497,0.82409 27.64589,-17.00057 19.88086,-30.53907 -4.18973,-8.43351 -13.96302,-13.02047 -23.125,-12.68554 z m -139.34961,2.02734 c -9.05367,-0.42837 -19.83595,3.57588 -21.70312,13.49609 -2.82001,9.89503 3.80756,21.40954 14.36914,22.57422 8.89113,2.13689 19.53364,-3.5526 27.20508,2.8711 0.88016,2.06467 -4.39095,0.0577 -6.13672,0.5957 -16.05445,-1.01558 -32.9562,6.3159 -40.6543,20.94922 -7.36915,13.31759 -6.43123,29.31965 -4.35807,43.85152 2.84218,17.01994 17.43174,32.21783 35.29166,32.19926 7.63367,0.24646 15.47769,-2.16039 21.32618,-7.07031 10.19539,12.56059 34.78082,7.32616 36.66406,-9.54492 1.9058,-13.74491 -0.45611,-27.5795 0.43555,-41.25196 -0.15336,-17.96225 2.30609,-36.66936 -3.19336,-54.05273 -7.38645,-16.8975 -26.69309,-27.07691 -44.8125,-24.12696 -4.81547,-0.0277 -9.61647,-0.54805 -14.4336,-0.49023 z m -214.177732,1.24805 c 4.626712,-0.1958 8.58008,6.02751 3.832031,8.88476 -4.968128,5.52932 -8.899182,13.68895 -6.515625,20.9043 -6.492851,-7.82396 -9.462885,-21.78502 -0.53125,-28.80469 0.971963,-0.58225 2.049858,-1.08359 3.214844,-0.98437 z M 181.03516,528.7324 c 6.11498,1.2426 3.87916,9.80873 3.76172,14.1582 -0.7415,16.28135 2.08796,33.06179 -1.48829,48.91993 -2.40015,1.81868 -5.75588,1.59253 -8.5039,1.43945 0.8171,-21.08024 -1.73177,-42.70803 1.11523,-63.38672 1.48906,-0.99831 3.37352,-1.1507 5.11524,-1.13086 z m 117.5625,42.35352 c -2.01283,7.72427 3.11603,16.99929 -2.19922,23.82422 -4.71973,2.16068 -10.2098,-2.6221 -8.01758,-7.5625 0.26049,-5.44542 -2.47343,-13.48619 3.38476,-16.79102 2.01065,0.0464 7.00015,-1.21228 6.83204,0.5293 z"
       id="text4803-2"
       inkscape:connector-curvature="0" />
    <text
       xml:space="preserve"
       style="color:#000000;font-style:normal;font-variant:normal;font-weight:normal;font-stretch:normal;font-size:226.98652649px;line-height:125%;font-family:Supermercado;-inkscape-font-specification:Supermercado;text-indent:0;text-align:start;text-decoration:none;text-decoration-line:none;text-decoration-style:solid;text-decoration-color:#000000;letter-spacing:0px;word-spacing:0px;text-transform:none;direction:ltr;block-progression:tb;writing-mode:lr-tb;baseline-shift:baseline;text-anchor:start;white-space:normal;clip-rule:nonzero;display:inline;overflow:visible;visibility:visible;opacity:1;isolation:auto;mix-blend-mode:normal;color-interpolation:sRGB;color-interpolation-filters:linearRGB;solid-color:#000000;solid-opacity:1;fill:#ffff75;fill-opacity:1;fill-rule:nonzero;stroke:#717d7f;stroke-width:0;stroke-linecap:butt;stroke-linejoin:round;stroke-miterlimit:4;stroke-dasharray:none;stroke-dashoffset:0;stroke-opacity:1;color-rendering:auto;image-rendering:auto;shape-rendering:auto;text-rendering:auto;enable-background:accumulate"
       x="9.2467775"
       y="621.14441"
       id="text4803"
       sodipodi:linespacing="125%"><tspan
         sodipodi:role="line"
         id="tspan4805"
         x="9.2467775"
         y="621.14441">Spark Kit</tspan></text>
  </g>
</svg>
